{
    "https://aliv.lecturer.pens.ac.id/audio/dd/DD01.mp3": "tomorrow is the deadline for choosing our classes for next semester",
    "https://aliv.lecturer.pens.ac.id/audio/dd/DD02.mp3": "stop beating around the bush and tell me why you are here",
    "https://aliv.lecturer.pens.ac.id/audio/dd/DD03.mp3": "a fire can happen at any moment, so firemen always need to be on their toes",
    "https://aliv.lecturer.pens.ac.id/audio/dd/DD04.mp3": "tom always got butterflies in his stomach before giving a speech",
    "https://aliv.lecturer.pens.ac.id/audio/dd/DD05.mp3": "that new purse of hers costs an arm and a leg",
    "https://aliv.lecturer.pens.ac.id/audio/dd/DD06.mp3": "she has been feeling blue every since her boyfriend broke up with her",
    "https://aliv.lecturer.pens.ac.id/audio/dd/DD07.mp3": "these days, finding a job that doesn’t require experience is like trying to find the needle in a haystack",
    "https://aliv.lecturer.pens.ac.id/audio/dd/DD08.mp3": "i have a big exam tomorrow, so i need to get some shut eye",
    "https://aliv.lecturer.pens.ac.id/audio/dd/DD09.mp3": "jane has the highest grades in our class since she always goes the extra mile with homework assignments",
    "https://aliv.lecturer.pens.ac.id/audio/dd/DD10.mp3": "I know it is hard waiting for the exam results, but you just need to hang in there",
    "https://aliv.lecturer.pens.ac.id/audio/dd/DD11.mp3": "jane knew i was hard up, so she paid for my coffee",
    "https://aliv.lecturer.pens.ac.id/audio/dd/DD12.mp3": "i have a bone to pick with the girl who stole my boyfriend from me",
    "https://aliv.lecturer.pens.ac.id/audio/dd/DD13.mp3": "i have decided to jump on the bandwagon and listen to that new band everyone is talking about",
    "https://aliv.lecturer.pens.ac.id/audio/dd/DD14.mp3": "the surprise party was ruined when my little brother let the cat out of the bag and told our mom about it",
    "https://aliv.lecturer.pens.ac.id/audio/dd/DD15.mp3": "the math homework has only three questions, so finishing it will be a piece of cake",
    "https://aliv.lecturer.pens.ac.id/audio/dd/DD16.mp3": "the husband put his foot in his mouth when he told his wife her dress was ugly",
    "https://aliv.lecturer.pens.ac.id/audio/dd/DD17.mp3": "use your umbrella because it is raining cat and dog",
    "https://aliv.lecturer.pens.ac.id/audio/dd/DD18.mp3": "I ran into my old kindergarten teacher at the grocery store today",
    "https://aliv.lecturer.pens.ac.id/audio/dd/DD19.mp3": "my father does not know anything about cars, so take any advice he gives you about fixing your engine with a grain of salt",
    "https://aliv.lecturer.pens.ac.id/audio/dd/DD20.mp3": "if you are not sure if you want to join the club, you can test the waters by just going to the first meeting"
}
